%YAML 1.1
%TAG !u! tag:unity3d.com,2011:
--- !u!687078895 &4343727234628468602
SpriteAtlas:
  m_ObjectHideFlags: 0
  m_CorrespondingSourceObject: {fileID: 0}
  m_PrefabInstance: {fileID: 0}
  m_PrefabAsset: {fileID: 0}
  m_Name: Mouse
  m_EditorData:
    serializedVersion: 2
    textureSettings:
      serializedVersion: 2
      anisoLevel: 1
      compressionQuality: 50
      maxTextureSize: 2048
      textureCompression: 0
      filterMode: 1
      generateMipMaps: 0
      readable: 0
      crunchedCompression: 0
      sRGB: 1
    platformSettings: []
    packingSettings:
      serializedVersion: 2
      padding: 4
      blockOffset: 1
      allowAlphaSplitting: 0
      enableRotation: 1
      enableTightPacking: 1
    variantMultiplier: 1
    packables:
    - {fileID: 102900000, guid: 1f004ccdeb0b1274eafd21af13c7029a, type: 3}
    totalSpriteSurfaceArea: 186315
    bindAsDefault: 1
  m_MasterAtlas: {fileID: 0}
  m_PackedSprites:
  - {fileID: 21300000, guid: 7bc6a5e1c4bcb6f44811b50183d4d4eb, type: 3}
  - {fileID: 21300000, guid: 9da1f05250d188442992ccfeca60453b, type: 3}
  - {fileID: 21300000, guid: f721cf766e6e5ff408f865ddfc3b3e9a, type: 3}
  - {fileID: 21300000, guid: f581cfd6b51da0e40a2267f521e90aad, type: 3}
  - {fileID: 21300000, guid: ddc809893db7f12458192225e3885cef, type: 3}
  - {fileID: 21300000, guid: 9f41c2b9bc1f2ee4fae60159c5fbdd15, type: 3}
  - {fileID: 21300000, guid: 30fedc7a40a794d4b812d67a7e889c27, type: 3}
  - {fileID: 21300000, guid: 8951ca8ad587144419865f9baa3f3255, type: 3}
  - {fileID: 21300000, guid: ea27e85b2b4235d41a3aafade904c65a, type: 3}
  - {fileID: 21300000, guid: 89c35b7b7d9bd8445a4d3c521f103970, type: 3}
  - {fileID: 21300000, guid: 4f65f1ab8c761dd49a72c11b7f61f776, type: 3}
  - {fileID: 21300000, guid: cf84450df3ec22e4bb5a2aef6825e7aa, type: 3}
  - {fileID: 21300000, guid: 920c0fdeaed52d04d89806ec2d4defe1, type: 3}
  m_PackedSpriteNamesToIndex:
  - Eye_left
  - Ear_left
  - Tail
  - shadow
  - Torso
  - Ear_right
  - Head
  - Eye_right
  - Arm_front
  - Arm_back
  - Snout
  - Leg_front
  - Leg_back
  m_Tag: Mouse
  m_IsVariant: 0
